transaction_id: 4572ce1e-2f1e-4fb1-a287-0300aae2c7c0 , transaction_item:System.Data.DataRow , machine_name: Sunny.Shelar , process_name: Sterling_RPA_RE_Framework, start_time: 04/09/2020 15:26:39 , transaction_status: InProgress
transaction_id: 4572ce1e-2f1e-4fb1-a287-0300aae2c7c0 , transaction status: Successful , ExceptionType: NA , End Time: 04/09/2020 15:34:12 , comments: Success
transaction_id: 4572ce1e-2f1e-4fb1-a287-0300aae2c7c0 , transaction status: Successful , ExceptionType: NA , End Time: 04/09/2020 15:34:12 , comments: 
transaction_id: e77bf694-b577-4bf9-a2ff-800c65f99e8c , transaction_item:System.Data.DataRow , machine_name: Sunny.Shelar , process_name: Sterling_RPA_RE_Framework, start_time: 04/09/2020 15:34:12 , transaction_status: InProgress
transaction_id: e77bf694-b577-4bf9-a2ff-800c65f99e8c , transaction status: Successful , ExceptionType: NA , End Time: 04/09/2020 15:43:55 , comments: Success
transaction_id: e77bf694-b577-4bf9-a2ff-800c65f99e8c , transaction status: Successful , ExceptionType: NA , End Time: 04/09/2020 15:43:55 , comments: 
transaction_id: df1a75a5-5275-46cc-bb16-ee439565270f , transaction_item:System.Data.DataRow , machine_name: Sunny.Shelar , process_name: Sterling_RPA_RE_Framework, start_time: 04/09/2020 15:43:55 , transaction_status: InProgress
transaction_id: df1a75a5-5275-46cc-bb16-ee439565270f , transaction status: Successful , ExceptionType: NA , End Time: 04/09/2020 15:57:32 , comments: Success
transaction_id: df1a75a5-5275-46cc-bb16-ee439565270f , transaction status: Successful , ExceptionType: NA , End Time: 04/09/2020 15:57:32 , comments: 
transaction_id: b8e8e3b9-39f1-4b3e-9567-099a1f1da6cf , transaction_item:System.Data.DataRow , machine_name: Sunny.Shelar , process_name: Sterling_RPA_RE_Framework, start_time: 04/09/2020 15:57:32 , transaction_status: InProgress
transaction_id: b8e8e3b9-39f1-4b3e-9567-099a1f1da6cf , transaction status: Successful , ExceptionType: NA , End Time: 04/09/2020 16:04:43 , comments: Success
transaction_id: b8e8e3b9-39f1-4b3e-9567-099a1f1da6cf , transaction status: Successful , ExceptionType: NA , End Time: 04/09/2020 16:04:43 , comments: 
transaction_id: e59b3037-c6a8-49b6-afff-f4015405a605 , transaction_item:System.Data.DataRow , machine_name: Sunny.Shelar , process_name: Sterling_RPA_RE_Framework, start_time: 04/09/2020 16:04:44 , transaction_status: InProgress
transaction_id: e59b3037-c6a8-49b6-afff-f4015405a605 , transaction status: Successful , ExceptionType: NA , End Time: 04/09/2020 16:14:08 , comments: Success
transaction_id: e59b3037-c6a8-49b6-afff-f4015405a605 , transaction status: Successful , ExceptionType: NA , End Time: 04/09/2020 16:14:09 , comments: 
transaction_id: fc2318d8-660e-4432-8270-78f044836b04 , transaction_item:System.Data.DataRow , machine_name: Sunny.Shelar , process_name: Sterling_RPA_RE_Framework, start_time: 04/09/2020 16:14:09 , transaction_status: InProgress
transaction_id: fc2318d8-660e-4432-8270-78f044836b04 , transaction status: Successful , ExceptionType: NA , End Time: 04/09/2020 16:21:47 , comments: Success
transaction_id: fc2318d8-660e-4432-8270-78f044836b04 , transaction status: Successful , ExceptionType: NA , End Time: 04/09/2020 16:21:48 , comments: 
transaction_id: c569f048-6841-4e7e-aa16-3b708d4f4c55 , transaction_item:System.Data.DataRow , machine_name: Sunny.Shelar , process_name: Sterling_RPA_RE_Framework, start_time: 04/09/2020 16:21:48 , transaction_status: InProgress
transaction_id: c569f048-6841-4e7e-aa16-3b708d4f4c55 , transaction status: Successful , ExceptionType: NA , End Time: 04/09/2020 16:30:00 , comments: Success
transaction_id: c569f048-6841-4e7e-aa16-3b708d4f4c55 , transaction status: Successful , ExceptionType: NA , End Time: 04/09/2020 16:30:00 , comments: 
transaction_id: f45594d8-bdf3-48b4-bc2e-828c3bf313a8 , transaction_item:System.Data.DataRow , machine_name: Sunny.Shelar , process_name: Sterling_RPA_RE_Framework, start_time: 04/09/2020 16:30:00 , transaction_status: InProgress
transaction_id: f45594d8-bdf3-48b4-bc2e-828c3bf313a8 , transaction status: Successful , ExceptionType: NA , End Time: 04/09/2020 16:46:05 , comments: Success
transaction_id: f45594d8-bdf3-48b4-bc2e-828c3bf313a8 , transaction status: Successful , ExceptionType: NA , End Time: 04/09/2020 16:46:06 , comments: 
transaction_id: 930b79ba-6277-4067-a206-d5ac878e0027 , transaction_item:System.Data.DataRow , machine_name: Sunny.Shelar , process_name: Sterling_RPA_RE_Framework, start_time: 04/09/2020 16:46:06 , transaction_status: InProgress
transaction_id: 930b79ba-6277-4067-a206-d5ac878e0027 , transaction status: Successful , ExceptionType: NA , End Time: 04/09/2020 17:12:41 , comments: Success
transaction_id: 930b79ba-6277-4067-a206-d5ac878e0027 , transaction status: Successful , ExceptionType: NA , End Time: 04/09/2020 17:12:41 , comments: 
transaction_id: 2f61aed8-233a-48ea-8b82-83bc86f138ee , transaction_item:System.Data.DataRow , machine_name: Sunny.Shelar , process_name: Sterling_RPA_RE_Framework, start_time: 04/09/2020 17:12:42 , transaction_status: InProgress
transaction_id: 2f61aed8-233a-48ea-8b82-83bc86f138ee , transaction status: Successful , ExceptionType: NA , End Time: 04/09/2020 17:20:47 , comments: Success
transaction_id: 2f61aed8-233a-48ea-8b82-83bc86f138ee , transaction status: Successful , ExceptionType: NA , End Time: 04/09/2020 17:20:48 , comments: 
transaction_id: aebd370a-5902-4a13-b126-f8ce20f2a3da , transaction_item:System.Data.DataRow , machine_name: Sunny.Shelar , process_name: Sterling_RPA_RE_Framework, start_time: 04/09/2020 17:20:48 , transaction_status: InProgress
transaction_id: 5f2dd501-2c93-4879-b4c5-d951d199da14 , transaction_item:System.Data.DataRow , machine_name: Sunny.Shelar , process_name: Sterling_RPA_RE_Framework, start_time: 04/09/2020 17:30:17 , transaction_status: InProgress
transaction_id: 5f2dd501-2c93-4879-b4c5-d951d199da14 , transaction status: Successful , ExceptionType: NA , End Time: 04/09/2020 17:36:51 , comments: Success
transaction_id: 5f2dd501-2c93-4879-b4c5-d951d199da14 , transaction status: Successful , ExceptionType: NA , End Time: 04/09/2020 17:36:51 , comments: 
transaction_id: a4bdfdcd-fb9a-4f35-8135-26ba55930f63 , transaction_item:System.Data.DataRow , machine_name: Sunny.Shelar , process_name: Sterling_RPA_RE_Framework, start_time: 04/09/2020 17:36:51 , transaction_status: InProgress
transaction_id: a4bdfdcd-fb9a-4f35-8135-26ba55930f63 , transaction status: Successful , ExceptionType: NA , End Time: 04/09/2020 17:43:58 , comments: Success
transaction_id: a4bdfdcd-fb9a-4f35-8135-26ba55930f63 , transaction status: Successful , ExceptionType: NA , End Time: 04/09/2020 17:43:58 , comments: 
transaction_id: 1af46a88-ed54-4741-93d9-0bdd81958dbf , transaction_item:System.Data.DataRow , machine_name: Sunny.Shelar , process_name: Sterling_RPA_RE_Framework, start_time: 04/09/2020 17:43:59 , transaction_status: InProgress
transaction_id: 1af46a88-ed54-4741-93d9-0bdd81958dbf , transaction status: Successful , ExceptionType: NA , End Time: 04/09/2020 17:51:08 , comments: Success
transaction_id: 1af46a88-ed54-4741-93d9-0bdd81958dbf , transaction status: Successful , ExceptionType: NA , End Time: 04/09/2020 17:51:09 , comments: 
transaction_id: 5b317a63-0a5a-418e-bda3-43c86ae27d26 , transaction_item:System.Data.DataRow , machine_name: Sunny.Shelar , process_name: Sterling_RPA_RE_Framework, start_time: 04/09/2020 17:51:09 , transaction_status: InProgress
transaction_id: 5b317a63-0a5a-418e-bda3-43c86ae27d26 , transaction status: Successful , ExceptionType: NA , End Time: 04/09/2020 17:58:24 , comments: Success
transaction_id: 5b317a63-0a5a-418e-bda3-43c86ae27d26 , transaction status: Successful , ExceptionType: NA , End Time: 04/09/2020 17:58:25 , comments: 
transaction_id: ebf11df9-d75c-4cdf-bac4-62754bce01c5 , transaction_item:System.Data.DataRow , machine_name: Sunny.Shelar , process_name: Sterling_RPA_RE_Framework, start_time: 04/09/2020 17:58:25 , transaction_status: InProgress
transaction_id: 3f9ba29b-f110-4b72-91cc-beb2fdf37c15 , transaction_item:System.Data.DataRow , machine_name: Sunny.Shelar , process_name: Sterling_RPA_RE_Framework, start_time: 04/09/2020 18:02:12 , transaction_status: InProgress
transaction_id: 4814b7d4-0cec-46aa-ad36-44743e7a535a , transaction_item:System.Data.DataRow , machine_name: Sunny.Shelar , process_name: Sterling_RPA_RE_Framework, start_time: 04/09/2020 18:05:52 , transaction_status: InProgress
transaction_id: b8cad8e6-4f7d-40f4-b9e2-4e9fc59c75a5 , transaction_item:System.Data.DataRow , machine_name: Sunny.Shelar , process_name: Sterling_RPA_RE_Framework, start_time: 04/09/2020 18:40:57 , transaction_status: InProgress
transaction_id: b8cad8e6-4f7d-40f4-b9e2-4e9fc59c75a5 , transaction status: Successful , ExceptionType: NA , End Time: 04/09/2020 18:47:53 , comments: Success
transaction_id: b8cad8e6-4f7d-40f4-b9e2-4e9fc59c75a5 , transaction status: Successful , ExceptionType: NA , End Time: 04/09/2020 18:47:54 , comments: 
transaction_id: d3ccf2ff-f168-4580-8e5d-3c3418bbe5cf , transaction_item:System.Data.DataRow , machine_name: Sunny.Shelar , process_name: Sterling_RPA_RE_Framework, start_time: 04/09/2020 18:47:54 , transaction_status: InProgress
transaction_id: d3ccf2ff-f168-4580-8e5d-3c3418bbe5cf , transaction status: Successful , ExceptionType: NA , End Time: 04/09/2020 18:54:56 , comments: Success
transaction_id: d3ccf2ff-f168-4580-8e5d-3c3418bbe5cf , transaction status: Successful , ExceptionType: NA , End Time: 04/09/2020 18:54:56 , comments: 
transaction_id: 5e952809-8c58-4b4b-b9a9-bebfd40f8813 , transaction_item:System.Data.DataRow , machine_name: Sunny.Shelar , process_name: Sterling_RPA_RE_Framework, start_time: 04/09/2020 18:54:57 , transaction_status: InProgress
transaction_id: 5e952809-8c58-4b4b-b9a9-bebfd40f8813 , transaction status: Successful , ExceptionType: NA , End Time: 04/09/2020 19:01:47 , comments: Success
transaction_id: 5e952809-8c58-4b4b-b9a9-bebfd40f8813 , transaction status: Successful , ExceptionType: NA , End Time: 04/09/2020 19:01:47 , comments: 
transaction_id: 3903f44d-0211-4b49-b66f-62ced6890bc7 , transaction_item:System.Data.DataRow , machine_name: Sunny.Shelar , process_name: Sterling_RPA_RE_Framework, start_time: 04/09/2020 19:01:48 , transaction_status: InProgress
transaction_id: 3903f44d-0211-4b49-b66f-62ced6890bc7 , transaction status: Successful , ExceptionType: NA , End Time: 04/09/2020 19:08:40 , comments: Success
transaction_id: 3903f44d-0211-4b49-b66f-62ced6890bc7 , transaction status: Successful , ExceptionType: NA , End Time: 04/09/2020 19:08:40 , comments: 
transaction_id: 43c1d440-5f2d-407a-a47e-554c84b61f7e , transaction_item:System.Data.DataRow , machine_name: Sunny.Shelar , process_name: Sterling_RPA_RE_Framework, start_time: 04/09/2020 19:08:41 , transaction_status: InProgress
transaction_id: 43c1d440-5f2d-407a-a47e-554c84b61f7e , transaction status: Successful , ExceptionType: NA , End Time: 04/09/2020 19:15:28 , comments: Success
transaction_id: 43c1d440-5f2d-407a-a47e-554c84b61f7e , transaction status: Successful , ExceptionType: NA , End Time: 04/09/2020 19:15:29 , comments: 
transaction_id: 5d506d76-9ac3-450b-b063-b78c095e3c8e , transaction_item:System.Data.DataRow , machine_name: Sunny.Shelar , process_name: Sterling_RPA_RE_Framework, start_time: 04/09/2020 19:15:29 , transaction_status: InProgress
transaction_id: 5d506d76-9ac3-450b-b063-b78c095e3c8e , transaction status: Successful , ExceptionType: NA , End Time: 04/09/2020 19:21:56 , comments: Success
transaction_id: 5d506d76-9ac3-450b-b063-b78c095e3c8e , transaction status: Successful , ExceptionType: NA , End Time: 04/09/2020 19:21:56 , comments: 
transaction_id: 6d5789a1-570c-4e6d-932d-b4fdd5e38541 , transaction_item:System.Data.DataRow , machine_name: Sunny.Shelar , process_name: Sterling_RPA_RE_Framework, start_time: 04/09/2020 19:21:56 , transaction_status: InProgress
transaction_id: 6d5789a1-570c-4e6d-932d-b4fdd5e38541 , transaction status: Successful , ExceptionType: NA , End Time: 04/09/2020 19:28:40 , comments: Success
transaction_id: 6d5789a1-570c-4e6d-932d-b4fdd5e38541 , transaction status: Successful , ExceptionType: NA , End Time: 04/09/2020 19:28:40 , comments: 
transaction_id: d96cf92b-db68-4f5b-914b-275012584bfc , transaction_item:System.Data.DataRow , machine_name: Sunny.Shelar , process_name: Sterling_RPA_RE_Framework, start_time: 04/09/2020 19:28:41 , transaction_status: InProgress
transaction_id: d96cf92b-db68-4f5b-914b-275012584bfc , transaction status: Successful , ExceptionType: NA , End Time: 04/09/2020 19:36:00 , comments: Success
transaction_id: d96cf92b-db68-4f5b-914b-275012584bfc , transaction status: Successful , ExceptionType: NA , End Time: 04/09/2020 19:36:00 , comments: 
transaction_id: 990a803c-d28e-42e1-bd6c-e1d7ae4ba4ef , transaction_item:System.Data.DataRow , machine_name: Sunny.Shelar , process_name: Sterling_RPA_RE_Framework, start_time: 04/09/2020 19:36:00 , transaction_status: InProgress
transaction_id: 990a803c-d28e-42e1-bd6c-e1d7ae4ba4ef , transaction status: Successful , ExceptionType: NA , End Time: 04/09/2020 19:42:48 , comments: Success
transaction_id: 990a803c-d28e-42e1-bd6c-e1d7ae4ba4ef , transaction status: Successful , ExceptionType: NA , End Time: 04/09/2020 19:42:48 , comments: 
transaction_id: fff9f4bb-ddac-4deb-be11-73d091a3dcba , transaction_item:System.Data.DataRow , machine_name: Sunny.Shelar , process_name: Sterling_RPA_RE_Framework, start_time: 04/09/2020 19:42:48 , transaction_status: InProgress
transaction_id: fff9f4bb-ddac-4deb-be11-73d091a3dcba , transaction status: Successful , ExceptionType: NA , End Time: 04/09/2020 19:50:03 , comments: Success
transaction_id: fff9f4bb-ddac-4deb-be11-73d091a3dcba , transaction status: Successful , ExceptionType: NA , End Time: 04/09/2020 19:50:03 , comments: 
transaction_id: 3a463ec0-cddd-4677-af50-bd0708570ece , transaction_item:System.Data.DataRow , machine_name: Sunny.Shelar , process_name: Sterling_RPA_RE_Framework, start_time: 04/09/2020 19:50:03 , transaction_status: InProgress
transaction_id: 3a463ec0-cddd-4677-af50-bd0708570ece , transaction status: Successful , ExceptionType: NA , End Time: 04/09/2020 19:56:52 , comments: Success
transaction_id: 3a463ec0-cddd-4677-af50-bd0708570ece , transaction status: Successful , ExceptionType: NA , End Time: 04/09/2020 19:56:52 , comments: 
transaction_id: e7ca312e-cee9-4ef0-9e27-68b3597b5804 , transaction_item:System.Data.DataRow , machine_name: Sunny.Shelar , process_name: Sterling_RPA_RE_Framework, start_time: 04/09/2020 19:56:52 , transaction_status: InProgress
transaction_id: e7ca312e-cee9-4ef0-9e27-68b3597b5804 , transaction status: Successful , ExceptionType: NA , End Time: 04/09/2020 20:03:53 , comments: Success
transaction_id: e7ca312e-cee9-4ef0-9e27-68b3597b5804 , transaction status: Successful , ExceptionType: NA , End Time: 04/09/2020 20:03:53 , comments: 
transaction_id: 875115b6-b898-40a8-91ab-46def9a955e6 , transaction_item:System.Data.DataRow , machine_name: Sunny.Shelar , process_name: Sterling_RPA_RE_Framework, start_time: 04/09/2020 20:03:54 , transaction_status: InProgress
transaction_id: 875115b6-b898-40a8-91ab-46def9a955e6 , transaction status: Successful , ExceptionType: NA , End Time: 04/09/2020 20:10:40 , comments: Success
transaction_id: 875115b6-b898-40a8-91ab-46def9a955e6 , transaction status: Successful , ExceptionType: NA , End Time: 04/09/2020 20:10:40 , comments: 
transaction_id: c4527b21-35c2-4226-9c36-40deb25398e1 , transaction_item:System.Data.DataRow , machine_name: Sunny.Shelar , process_name: Sterling_RPA_RE_Framework, start_time: 04/09/2020 20:10:41 , transaction_status: InProgress
transaction_id: c4527b21-35c2-4226-9c36-40deb25398e1 , transaction status: Successful , ExceptionType: NA , End Time: 04/09/2020 20:17:45 , comments: Success
transaction_id: c4527b21-35c2-4226-9c36-40deb25398e1 , transaction status: Successful , ExceptionType: NA , End Time: 04/09/2020 20:17:45 , comments: 
transaction_id: e340bf87-c4fb-4817-873a-0f9bd973221e , transaction_item:System.Data.DataRow , machine_name: Sunny.Shelar , process_name: Sterling_RPA_RE_Framework, start_time: 04/09/2020 20:17:46 , transaction_status: InProgress
transaction_id: e340bf87-c4fb-4817-873a-0f9bd973221e , transaction status: Successful , ExceptionType: NA , End Time: 04/09/2020 20:24:39 , comments: Success
transaction_id: e340bf87-c4fb-4817-873a-0f9bd973221e , transaction status: Successful , ExceptionType: NA , End Time: 04/09/2020 20:24:40 , comments: 
transaction_id: 2dfac6ab-effa-4211-9b37-e0a73a971666 , transaction_item:System.Data.DataRow , machine_name: Sunny.Shelar , process_name: Sterling_RPA_RE_Framework, start_time: 04/09/2020 20:24:40 , transaction_status: InProgress
transaction_id: 2dfac6ab-effa-4211-9b37-e0a73a971666 , transaction status: Successful , ExceptionType: NA , End Time: 04/09/2020 20:31:36 , comments: Success
transaction_id: 2dfac6ab-effa-4211-9b37-e0a73a971666 , transaction status: Successful , ExceptionType: NA , End Time: 04/09/2020 20:31:37 , comments: 
transaction_id: 531dc090-4cfa-4514-b718-5f3857c22d1e , transaction_item:System.Data.DataRow , machine_name: Sunny.Shelar , process_name: Sterling_RPA_RE_Framework, start_time: 04/09/2020 20:31:37 , transaction_status: InProgress
transaction_id: 531dc090-4cfa-4514-b718-5f3857c22d1e , transaction status: Successful , ExceptionType: NA , End Time: 04/09/2020 20:38:33 , comments: Success
transaction_id: 531dc090-4cfa-4514-b718-5f3857c22d1e , transaction status: Successful , ExceptionType: NA , End Time: 04/09/2020 20:38:34 , comments: 
transaction_id: e988b9dd-d2a1-440c-8480-7f8b9f01db4e , transaction_item:System.Data.DataRow , machine_name: Sunny.Shelar , process_name: Sterling_RPA_RE_Framework, start_time: 04/09/2020 20:38:34 , transaction_status: InProgress
transaction_id: e988b9dd-d2a1-440c-8480-7f8b9f01db4e , transaction status: Successful , ExceptionType: NA , End Time: 04/09/2020 20:45:33 , comments: Success
transaction_id: e988b9dd-d2a1-440c-8480-7f8b9f01db4e , transaction status: Successful , ExceptionType: NA , End Time: 04/09/2020 20:45:33 , comments: 
transaction_id: a9717a77-75a0-47b3-bdb7-c79a8f9c866e , transaction_item:System.Data.DataRow , machine_name: Sunny.Shelar , process_name: Sterling_RPA_RE_Framework, start_time: 04/09/2020 20:45:34 , transaction_status: InProgress
transaction_id: a9717a77-75a0-47b3-bdb7-c79a8f9c866e , transaction status: Successful , ExceptionType: NA , End Time: 04/09/2020 20:52:35 , comments: Success
transaction_id: a9717a77-75a0-47b3-bdb7-c79a8f9c866e , transaction status: Successful , ExceptionType: NA , End Time: 04/09/2020 20:52:35 , comments: 
transaction_id: b3238273-df31-4f1a-bdde-c1890660d149 , transaction_item:System.Data.DataRow , machine_name: Sunny.Shelar , process_name: Sterling_RPA_RE_Framework, start_time: 04/09/2020 20:52:36 , transaction_status: InProgress
transaction_id: b3238273-df31-4f1a-bdde-c1890660d149 , transaction status: Successful , ExceptionType: NA , End Time: 04/09/2020 20:59:36 , comments: Success
transaction_id: b3238273-df31-4f1a-bdde-c1890660d149 , transaction status: Successful , ExceptionType: NA , End Time: 04/09/2020 20:59:36 , comments: 
transaction_id: 6879863f-fcaf-4184-b130-437251029c89 , transaction_item:System.Data.DataRow , machine_name: Sunny.Shelar , process_name: Sterling_RPA_RE_Framework, start_time: 04/09/2020 20:59:37 , transaction_status: InProgress
transaction_id: 6879863f-fcaf-4184-b130-437251029c89 , transaction status: Successful , ExceptionType: NA , End Time: 04/09/2020 21:06:41 , comments: Success
transaction_id: 6879863f-fcaf-4184-b130-437251029c89 , transaction status: Successful , ExceptionType: NA , End Time: 04/09/2020 21:06:42 , comments: 
transaction_id: 5ff12f71-92bb-42db-933c-d9db8ebb2200 , transaction_item:System.Data.DataRow , machine_name: Sunny.Shelar , process_name: Sterling_RPA_RE_Framework, start_time: 04/09/2020 21:06:42 , transaction_status: InProgress
transaction_id: 5ff12f71-92bb-42db-933c-d9db8ebb2200 , transaction status: Successful , ExceptionType: NA , End Time: 04/09/2020 21:13:42 , comments: Success
transaction_id: 5ff12f71-92bb-42db-933c-d9db8ebb2200 , transaction status: Successful , ExceptionType: NA , End Time: 04/09/2020 21:13:42 , comments: 
transaction_id: 9092761c-933f-4d3b-a9cd-e93a6a1eeced , transaction_item:System.Data.DataRow , machine_name: Sunny.Shelar , process_name: Sterling_RPA_RE_Framework, start_time: 04/09/2020 21:13:43 , transaction_status: InProgress
transaction_id: a2926483-dc0e-4175-b753-ce5d1129bc91 , transaction_item:System.Data.DataRow , machine_name: Sunny.Shelar , process_name: Sterling_RPA_RE_Framework, start_time: 04/09/2020 21:19:11 , transaction_status: InProgress
transaction_id: a2926483-dc0e-4175-b753-ce5d1129bc91 , transaction status: Successful , ExceptionType: NA , End Time: 04/09/2020 21:26:36 , comments: Success
transaction_id: a2926483-dc0e-4175-b753-ce5d1129bc91 , transaction status: Successful , ExceptionType: NA , End Time: 04/09/2020 21:26:36 , comments: 
transaction_id: 20e2cf1b-5563-4722-8b42-e6c40ad33326 , transaction_item:System.Data.DataRow , machine_name: Sunny.Shelar , process_name: Sterling_RPA_RE_Framework, start_time: 04/09/2020 21:26:37 , transaction_status: InProgress
transaction_id: 20e2cf1b-5563-4722-8b42-e6c40ad33326 , transaction status: Successful , ExceptionType: NA , End Time: 04/09/2020 21:35:20 , comments: Success
transaction_id: 20e2cf1b-5563-4722-8b42-e6c40ad33326 , transaction status: Successful , ExceptionType: NA , End Time: 04/09/2020 21:35:20 , comments: 
transaction_id: 1021b7b7-adf8-41de-b4e1-ad75a7a8a9c7 , transaction_item:System.Data.DataRow , machine_name: Sunny.Shelar , process_name: Sterling_RPA_RE_Framework, start_time: 04/09/2020 21:35:20 , transaction_status: InProgress
transaction_id: 1021b7b7-adf8-41de-b4e1-ad75a7a8a9c7 , transaction status: Successful , ExceptionType: NA , End Time: 04/09/2020 21:44:34 , comments: Success
transaction_id: 1021b7b7-adf8-41de-b4e1-ad75a7a8a9c7 , transaction status: Successful , ExceptionType: NA , End Time: 04/09/2020 21:44:34 , comments: 
transaction_id: 95cd9764-6cb6-4926-8a91-32646984d178 , transaction_item:System.Data.DataRow , machine_name: Sunny.Shelar , process_name: Sterling_RPA_RE_Framework, start_time: 04/09/2020 21:44:35 , transaction_status: InProgress
transaction_id: 95cd9764-6cb6-4926-8a91-32646984d178 , transaction status: Successful , ExceptionType: NA , End Time: 04/09/2020 21:51:42 , comments: Success
transaction_id: 95cd9764-6cb6-4926-8a91-32646984d178 , transaction status: Successful , ExceptionType: NA , End Time: 04/09/2020 21:51:42 , comments: 
