transaction_id: 94943a62-b3e6-4a56-a7df-d7cc9ab0a906 , transaction_item:System.Data.DataRow , machine_name: Sunny.Shelar , process_name: Sterling_RPA_RE_Framework, start_time: 05/21/2020 08:41:28 , transaction_status: InProgress
transaction_id: 94943a62-b3e6-4a56-a7df-d7cc9ab0a906 , transaction status: Successful , ExceptionType: NA , End Time: 05/21/2020 08:49:30 , comments: Success
transaction_id: 94943a62-b3e6-4a56-a7df-d7cc9ab0a906 , transaction status: Successful , ExceptionType: NA , End Time: 05/21/2020 08:49:30 , comments: 
transaction_id: 49a3662c-4d39-4727-8b18-0ee1bdf0e9e1 , transaction_item:System.Data.DataRow , machine_name: Sunny.Shelar , process_name: Sterling_RPA_RE_Framework, start_time: 05/21/2020 08:49:30 , transaction_status: InProgress
transaction_id: 49a3662c-4d39-4727-8b18-0ee1bdf0e9e1 , transaction status: Successful , ExceptionType: NA , End Time: 05/21/2020 08:57:56 , comments: Success
transaction_id: 49a3662c-4d39-4727-8b18-0ee1bdf0e9e1 , transaction status: Successful , ExceptionType: NA , End Time: 05/21/2020 08:57:57 , comments: 
transaction_id: b65b6140-be05-48c3-b870-de65451f0238 , transaction_item:System.Data.DataRow , machine_name: Sunny.Shelar , process_name: Sterling_RPA_RE_Framework, start_time: 05/21/2020 08:57:57 , transaction_status: InProgress
transaction_id: b65b6140-be05-48c3-b870-de65451f0238 , transaction status: Successful , ExceptionType: NA , End Time: 05/21/2020 09:06:54 , comments: Success
transaction_id: b65b6140-be05-48c3-b870-de65451f0238 , transaction status: Successful , ExceptionType: NA , End Time: 05/21/2020 09:06:55 , comments: 
transaction_id: ddc844f4-d48b-4ba8-962a-8aec4ef1e6d2 , transaction_item:System.Data.DataRow , machine_name: Sunny.Shelar , process_name: Sterling_RPA_RE_Framework, start_time: 05/21/2020 09:06:55 , transaction_status: InProgress
transaction_id: ddc844f4-d48b-4ba8-962a-8aec4ef1e6d2 , transaction status: Successful , ExceptionType: NA , End Time: 05/21/2020 09:15:39 , comments: Success
transaction_id: ddc844f4-d48b-4ba8-962a-8aec4ef1e6d2 , transaction status: Successful , ExceptionType: NA , End Time: 05/21/2020 09:15:39 , comments: 
transaction_id: ffde9ca9-ddb0-4746-8889-766eb59d88c0 , transaction_item:System.Data.DataRow , machine_name: Sunny.Shelar , process_name: Sterling_RPA_RE_Framework, start_time: 05/21/2020 09:15:40 , transaction_status: InProgress
transaction_id: ffde9ca9-ddb0-4746-8889-766eb59d88c0 , transaction status: Successful , ExceptionType: NA , End Time: 05/21/2020 09:23:39 , comments: Success
transaction_id: ffde9ca9-ddb0-4746-8889-766eb59d88c0 , transaction status: Successful , ExceptionType: NA , End Time: 05/21/2020 09:23:39 , comments: 
transaction_id: e45e3a7f-de59-40be-a9a7-306e499e86bb , transaction_item:System.Data.DataRow , machine_name: Sunny.Shelar , process_name: Sterling_RPA_RE_Framework, start_time: 05/21/2020 09:23:40 , transaction_status: InProgress
transaction_id: e45e3a7f-de59-40be-a9a7-306e499e86bb , transaction status: Successful , ExceptionType: NA , End Time: 05/21/2020 09:32:34 , comments: Success
transaction_id: e45e3a7f-de59-40be-a9a7-306e499e86bb , transaction status: Successful , ExceptionType: NA , End Time: 05/21/2020 09:32:35 , comments: 
transaction_id: b5bb0291-f910-450e-883f-be236e43922e , transaction_item:System.Data.DataRow , machine_name: Sunny.Shelar , process_name: Sterling_RPA_RE_Framework, start_time: 05/21/2020 09:52:24 , transaction_status: InProgress
transaction_id: 02d9cf9d-15eb-41c3-a407-4105b41cf686 , transaction_item:System.Data.DataRow , machine_name: Sunny.Shelar , process_name: Sterling_RPA_RE_Framework, start_time: 05/21/2020 10:00:25 , transaction_status: InProgress
transaction_id: 02d9cf9d-15eb-41c3-a407-4105b41cf686 , transaction status: Successful , ExceptionType: NA , End Time: 05/21/2020 10:08:04 , comments: Success
transaction_id: 02d9cf9d-15eb-41c3-a407-4105b41cf686 , transaction status: Successful , ExceptionType: NA , End Time: 05/21/2020 10:08:05 , comments: 
transaction_id: 7ba9636d-c38a-438c-8337-355e77b2f726 , transaction_item:System.Data.DataRow , machine_name: Sunny.Shelar , process_name: Sterling_RPA_RE_Framework, start_time: 05/21/2020 10:08:05 , transaction_status: InProgress
transaction_id: 43d76343-13dc-4f69-96b9-657ab6054f6b , transaction_item:System.Data.DataRow , machine_name: Sunny.Shelar , process_name: Sterling_RPA_RE_Framework, start_time: 05/21/2020 10:12:58 , transaction_status: InProgress
transaction_id: 43d76343-13dc-4f69-96b9-657ab6054f6b , transaction status: Successful , ExceptionType: NA , End Time: 05/21/2020 10:22:30 , comments: Success
transaction_id: 43d76343-13dc-4f69-96b9-657ab6054f6b , transaction status: Successful , ExceptionType: NA , End Time: 05/21/2020 10:22:31 , comments: 
transaction_id: 5b38511e-aaf1-4b49-b078-e6c5d91d0733 , transaction_item:System.Data.DataRow , machine_name: Sunny.Shelar , process_name: Sterling_RPA_RE_Framework, start_time: 05/21/2020 10:22:31 , transaction_status: InProgress
transaction_id: 5b38511e-aaf1-4b49-b078-e6c5d91d0733 , transaction status: Successful , ExceptionType: NA , End Time: 05/21/2020 10:30:43 , comments: Success
transaction_id: 5b38511e-aaf1-4b49-b078-e6c5d91d0733 , transaction status: Successful , ExceptionType: NA , End Time: 05/21/2020 10:30:43 , comments: 
transaction_id: 4a9c1be0-9797-4701-84c4-f6b6283f4ace , transaction_item:System.Data.DataRow , machine_name: Sunny.Shelar , process_name: Sterling_RPA_RE_Framework, start_time: 05/21/2020 10:30:44 , transaction_status: InProgress
transaction_id: 4a9c1be0-9797-4701-84c4-f6b6283f4ace , transaction status: Failed , ExceptionType: BusinessRule , End Time: 05/21/2020 10:32:12 , comments: Duplicate record found
transaction_id: 4a9c1be0-9797-4701-84c4-f6b6283f4ace , transaction status: Failed , ExceptionType: BusinessRule , End Time: 05/21/2020 10:32:30 , comments: Duplicate record found at Source: Throw
transaction_id: fc93bb32-18ae-4db2-8f88-b7ded73ac44e , transaction_item:System.Data.DataRow , machine_name: Sunny.Shelar , process_name: Sterling_RPA_RE_Framework, start_time: 05/21/2020 10:32:30 , transaction_status: InProgress
transaction_id: fc93bb32-18ae-4db2-8f88-b7ded73ac44e , transaction status: Failed , ExceptionType: BusinessRule , End Time: 05/21/2020 10:34:03 , comments: Duplicate record found
transaction_id: fc93bb32-18ae-4db2-8f88-b7ded73ac44e , transaction status: Failed , ExceptionType: BusinessRule , End Time: 05/21/2020 10:34:18 , comments: Duplicate record found at Source: Throw
transaction_id: 92c8ced7-ea35-4920-8183-98e71a33c476 , transaction_item:System.Data.DataRow , machine_name: Sunny.Shelar , process_name: Sterling_RPA_RE_Framework, start_time: 05/21/2020 10:34:18 , transaction_status: InProgress
transaction_id: 92c8ced7-ea35-4920-8183-98e71a33c476 , transaction status: Successful , ExceptionType: NA , End Time: 05/21/2020 10:42:19 , comments: Success
transaction_id: 92c8ced7-ea35-4920-8183-98e71a33c476 , transaction status: Successful , ExceptionType: NA , End Time: 05/21/2020 10:42:20 , comments: 
transaction_id: 067bef8b-0149-400e-a058-e3614781077b , transaction_item:System.Data.DataRow , machine_name: Sunny.Shelar , process_name: Sterling_RPA_RE_Framework, start_time: 05/21/2020 10:42:20 , transaction_status: InProgress
transaction_id: 067bef8b-0149-400e-a058-e3614781077b , transaction status: Successful , ExceptionType: NA , End Time: 05/21/2020 10:50:14 , comments: Success
transaction_id: 067bef8b-0149-400e-a058-e3614781077b , transaction status: Successful , ExceptionType: NA , End Time: 05/21/2020 10:50:14 , comments: 
transaction_id: 740565ae-2c02-49e4-b389-9bcf96c79693 , transaction_item:System.Data.DataRow , machine_name: Sunny.Shelar , process_name: Sterling_RPA_RE_Framework, start_time: 05/21/2020 10:50:15 , transaction_status: InProgress
transaction_id: 740565ae-2c02-49e4-b389-9bcf96c79693 , transaction status: Successful , ExceptionType: NA , End Time: 05/21/2020 11:08:55 , comments: Success
transaction_id: 740565ae-2c02-49e4-b389-9bcf96c79693 , transaction status: Successful , ExceptionType: NA , End Time: 05/21/2020 11:08:55 , comments: 
transaction_id: 3f2e2c9b-d717-4c0f-9d5c-deb4f9a6e0f7 , transaction_item:System.Data.DataRow , machine_name: Sunny.Shelar , process_name: Sterling_RPA_RE_Framework, start_time: 05/21/2020 11:10:05 , transaction_status: InProgress
transaction_id: 3f2e2c9b-d717-4c0f-9d5c-deb4f9a6e0f7 , transaction status: Successful , ExceptionType: NA , End Time: 05/21/2020 11:18:06 , comments: Success
transaction_id: 3f2e2c9b-d717-4c0f-9d5c-deb4f9a6e0f7 , transaction status: Successful , ExceptionType: NA , End Time: 05/21/2020 11:18:06 , comments: 
transaction_id: af644d0d-1853-4e06-ab8c-8086df9efcf5 , transaction_item:System.Data.DataRow , machine_name: Sunny.Shelar , process_name: Sterling_RPA_RE_Framework, start_time: 05/21/2020 11:18:07 , transaction_status: InProgress
transaction_id: af644d0d-1853-4e06-ab8c-8086df9efcf5 , transaction status: Successful , ExceptionType: NA , End Time: 05/21/2020 11:28:07 , comments: Success
transaction_id: af644d0d-1853-4e06-ab8c-8086df9efcf5 , transaction status: Successful , ExceptionType: NA , End Time: 05/21/2020 11:28:07 , comments: 
transaction_id: 59092efd-f358-4818-a1fd-e1d5dd1d8a07 , transaction_item:System.Data.DataRow , machine_name: Sunny.Shelar , process_name: Sterling_RPA_RE_Framework, start_time: 05/21/2020 11:28:08 , transaction_status: InProgress
transaction_id: 59092efd-f358-4818-a1fd-e1d5dd1d8a07 , transaction status: Successful , ExceptionType: NA , End Time: 05/21/2020 11:35:54 , comments: Success
transaction_id: 59092efd-f358-4818-a1fd-e1d5dd1d8a07 , transaction status: Successful , ExceptionType: NA , End Time: 05/21/2020 11:35:54 , comments: 
transaction_id: 6f23cd5b-8b83-46e6-81aa-30f86bfa027c , transaction_item:System.Data.DataRow , machine_name: Sunny.Shelar , process_name: Sterling_RPA_RE_Framework, start_time: 05/21/2020 11:35:55 , transaction_status: InProgress
transaction_id: 6f23cd5b-8b83-46e6-81aa-30f86bfa027c , transaction status: Successful , ExceptionType: NA , End Time: 05/21/2020 11:43:49 , comments: Success
transaction_id: 6f23cd5b-8b83-46e6-81aa-30f86bfa027c , transaction status: Successful , ExceptionType: NA , End Time: 05/21/2020 11:43:50 , comments: 
transaction_id: 63896e5b-9d3e-4200-8510-3ec560bfba53 , transaction_item:System.Data.DataRow , machine_name: Sunny.Shelar , process_name: Sterling_RPA_RE_Framework, start_time: 05/21/2020 11:43:50 , transaction_status: InProgress
transaction_id: 63896e5b-9d3e-4200-8510-3ec560bfba53 , transaction status: Successful , ExceptionType: NA , End Time: 05/21/2020 11:52:33 , comments: Success
transaction_id: 63896e5b-9d3e-4200-8510-3ec560bfba53 , transaction status: Successful , ExceptionType: NA , End Time: 05/21/2020 11:52:33 , comments: 
transaction_id: 2d3a7c75-9056-46ae-9028-f5f7fc54d882 , transaction_item:System.Data.DataRow , machine_name: Sunny.Shelar , process_name: Sterling_RPA_RE_Framework, start_time: 05/21/2020 11:52:34 , transaction_status: InProgress
transaction_id: 2d3a7c75-9056-46ae-9028-f5f7fc54d882 , transaction status: Successful , ExceptionType: NA , End Time: 05/21/2020 12:00:37 , comments: Success
transaction_id: 2d3a7c75-9056-46ae-9028-f5f7fc54d882 , transaction status: Successful , ExceptionType: NA , End Time: 05/21/2020 12:00:38 , comments: 
transaction_id: 78f1c4d1-bf5f-4ad1-aad0-98f8d387404e , transaction_item:System.Data.DataRow , machine_name: Sunny.Shelar , process_name: Sterling_RPA_RE_Framework, start_time: 05/21/2020 12:00:38 , transaction_status: InProgress
transaction_id: 78f1c4d1-bf5f-4ad1-aad0-98f8d387404e , transaction status: Successful , ExceptionType: NA , End Time: 05/21/2020 12:08:41 , comments: Success
transaction_id: 78f1c4d1-bf5f-4ad1-aad0-98f8d387404e , transaction status: Successful , ExceptionType: NA , End Time: 05/21/2020 12:08:42 , comments: 
transaction_id: 36d14676-7a9a-47bc-8a90-e3cb7d4465d4 , transaction_item:System.Data.DataRow , machine_name: Sunny.Shelar , process_name: Sterling_RPA_RE_Framework, start_time: 05/21/2020 12:09:52 , transaction_status: InProgress
transaction_id: 36d14676-7a9a-47bc-8a90-e3cb7d4465d4 , transaction status: Successful , ExceptionType: NA , End Time: 05/21/2020 12:17:54 , comments: Success
transaction_id: 36d14676-7a9a-47bc-8a90-e3cb7d4465d4 , transaction status: Successful , ExceptionType: NA , End Time: 05/21/2020 12:17:55 , comments: 
transaction_id: e916c7e0-b001-4a6d-93a2-e78f2fb3a18e , transaction_item:System.Data.DataRow , machine_name: Sunny.Shelar , process_name: Sterling_RPA_RE_Framework, start_time: 05/21/2020 12:17:55 , transaction_status: InProgress
transaction_id: e916c7e0-b001-4a6d-93a2-e78f2fb3a18e , transaction status: Successful , ExceptionType: NA , End Time: 05/21/2020 12:25:52 , comments: Success
transaction_id: e916c7e0-b001-4a6d-93a2-e78f2fb3a18e , transaction status: Successful , ExceptionType: NA , End Time: 05/21/2020 12:25:52 , comments: 
transaction_id: 78c75982-17b9-4b91-88e5-a8cc88751ee6 , transaction_item:System.Data.DataRow , machine_name: Sunny.Shelar , process_name: Sterling_RPA_RE_Framework, start_time: 05/21/2020 12:25:53 , transaction_status: InProgress
transaction_id: 78c75982-17b9-4b91-88e5-a8cc88751ee6 , transaction status: Failed , ExceptionType: BusinessRule , End Time: 05/21/2020 12:27:39 , comments: Duplicate record found
transaction_id: 78c75982-17b9-4b91-88e5-a8cc88751ee6 , transaction status: Failed , ExceptionType: BusinessRule , End Time: 05/21/2020 12:28:25 , comments: Duplicate record found at Source: Throw
transaction_id: afa87789-fd88-4b91-91c2-cf3eafa3c03c , transaction_item:System.Data.DataRow , machine_name: Sunny.Shelar , process_name: Sterling_RPA_RE_Framework, start_time: 05/21/2020 12:28:25 , transaction_status: InProgress
transaction_id: afa87789-fd88-4b91-91c2-cf3eafa3c03c , transaction status: Successful , ExceptionType: NA , End Time: 05/21/2020 12:36:10 , comments: Success
transaction_id: afa87789-fd88-4b91-91c2-cf3eafa3c03c , transaction status: Successful , ExceptionType: NA , End Time: 05/21/2020 12:36:11 , comments: 
