transaction_id: d41ef7ff-e372-451d-8ede-4e0224ec031c , transaction_item:System.Data.DataRow , machine_name: Sunny.Shelar , process_name: Sterling_RPA_RE_Framework, start_time: 04/30/2020 10:36:06 , transaction_status: InProgress
transaction_id: d41ef7ff-e372-451d-8ede-4e0224ec031c , transaction status: Successful , ExceptionType: NA , End Time: 04/30/2020 10:44:43 , comments: Success
transaction_id: d41ef7ff-e372-451d-8ede-4e0224ec031c , transaction status: Successful , ExceptionType: NA , End Time: 04/30/2020 10:44:44 , comments: 
transaction_id: 94b4b994-2b1c-44e7-9104-0f6881c32d3d , transaction_item:System.Data.DataRow , machine_name: Sunny.Shelar , process_name: Sterling_RPA_RE_Framework, start_time: 04/30/2020 10:44:44 , transaction_status: InProgress
transaction_id: 94b4b994-2b1c-44e7-9104-0f6881c32d3d , transaction status: Successful , ExceptionType: NA , End Time: 04/30/2020 10:47:25 , comments: 
transaction_id: 31a9183d-a8f0-4b3a-a20b-7fc203d83399 , transaction_item:System.Data.DataRow , machine_name: Sunny.Shelar , process_name: Sterling_RPA_RE_Framework, start_time: 04/30/2020 10:53:39 , transaction_status: InProgress
transaction_id: 31a9183d-a8f0-4b3a-a20b-7fc203d83399 , transaction status: Successful , ExceptionType: NA , End Time: 04/30/2020 11:02:30 , comments: Success
transaction_id: 31a9183d-a8f0-4b3a-a20b-7fc203d83399 , transaction status: Successful , ExceptionType: NA , End Time: 04/30/2020 11:02:31 , comments: 
transaction_id: 96898bb1-8134-4dec-b3f9-75ea7d64387e , transaction_item:System.Data.DataRow , machine_name: Sunny.Shelar , process_name: Sterling_RPA_RE_Framework, start_time: 04/30/2020 11:02:31 , transaction_status: InProgress
transaction_id: 96898bb1-8134-4dec-b3f9-75ea7d64387e , transaction status: Successful , ExceptionType: NA , End Time: 04/30/2020 11:12:48 , comments: Success
transaction_id: 96898bb1-8134-4dec-b3f9-75ea7d64387e , transaction status: Successful , ExceptionType: NA , End Time: 04/30/2020 11:12:48 , comments: 
transaction_id: 698e7504-a681-40f9-97b2-ff33c22d29cf , transaction_item:System.Data.DataRow , machine_name: Sunny.Shelar , process_name: Sterling_RPA_RE_Framework, start_time: 04/30/2020 11:12:49 , transaction_status: InProgress
transaction_id: 698e7504-a681-40f9-97b2-ff33c22d29cf , transaction status: Successful , ExceptionType: NA , End Time: 04/30/2020 11:30:05 , comments: Success
transaction_id: 698e7504-a681-40f9-97b2-ff33c22d29cf , transaction status: Successful , ExceptionType: NA , End Time: 04/30/2020 11:30:06 , comments: 
transaction_id: 40441d5a-76cf-4a77-854e-7258f2448f6a , transaction_item:System.Data.DataRow , machine_name: Sunny.Shelar , process_name: Sterling_RPA_RE_Framework, start_time: 04/30/2020 11:30:06 , transaction_status: InProgress
transaction_id: 40441d5a-76cf-4a77-854e-7258f2448f6a , transaction status: Successful , ExceptionType: NA , End Time: 04/30/2020 13:12:23 , comments: Success
transaction_id: 40441d5a-76cf-4a77-854e-7258f2448f6a , transaction status: Successful , ExceptionType: NA , End Time: 04/30/2020 13:12:24 , comments: 
transaction_id: 5b53b2e4-c223-41b0-b238-c5cb9ebc766c , transaction_item:System.Data.DataRow , machine_name: Sunny.Shelar , process_name: Sterling_RPA_RE_Framework, start_time: 04/30/2020 13:12:25 , transaction_status: InProgress
transaction_id: 5b53b2e4-c223-41b0-b238-c5cb9ebc766c , transaction status: Successful , ExceptionType: NA , End Time: 04/30/2020 13:21:03 , comments: Success
transaction_id: 5b53b2e4-c223-41b0-b238-c5cb9ebc766c , transaction status: Successful , ExceptionType: NA , End Time: 04/30/2020 13:21:03 , comments: 
transaction_id: 627e8d36-3d56-442b-b3c2-362eab2c2672 , transaction_item:System.Data.DataRow , machine_name: Sunny.Shelar , process_name: Sterling_RPA_RE_Framework, start_time: 04/30/2020 13:21:04 , transaction_status: InProgress
transaction_id: 627e8d36-3d56-442b-b3c2-362eab2c2672 , transaction status: Successful , ExceptionType: NA , End Time: 04/30/2020 13:29:16 , comments: Success
transaction_id: 627e8d36-3d56-442b-b3c2-362eab2c2672 , transaction status: Successful , ExceptionType: NA , End Time: 04/30/2020 13:29:16 , comments: 
transaction_id: 931b961d-98e4-42cc-a366-55956f18a0b3 , transaction_item:System.Data.DataRow , machine_name: Sunny.Shelar , process_name: Sterling_RPA_RE_Framework, start_time: 04/30/2020 13:29:17 , transaction_status: InProgress
transaction_id: 2e552c68-51c6-4416-b868-ab90a53e0de8 , transaction_item:System.Data.DataRow , machine_name: Sunny.Shelar , process_name: Sterling_RPA_RE_Framework, start_time: 04/30/2020 13:34:37 , transaction_status: InProgress
transaction_id: 2e552c68-51c6-4416-b868-ab90a53e0de8 , transaction status: Successful , ExceptionType: NA , End Time: 04/30/2020 13:43:05 , comments: Success
transaction_id: 2e552c68-51c6-4416-b868-ab90a53e0de8 , transaction status: Successful , ExceptionType: NA , End Time: 04/30/2020 13:43:05 , comments: 
transaction_id: 0eebbc86-0f2d-423c-bd4a-6a340d3d3cc9 , transaction_item:System.Data.DataRow , machine_name: Sunny.Shelar , process_name: Sterling_RPA_RE_Framework, start_time: 04/30/2020 13:43:05 , transaction_status: InProgress
transaction_id: 0eebbc86-0f2d-423c-bd4a-6a340d3d3cc9 , transaction status: Successful , ExceptionType: NA , End Time: 04/30/2020 13:51:14 , comments: Success
transaction_id: 0eebbc86-0f2d-423c-bd4a-6a340d3d3cc9 , transaction status: Successful , ExceptionType: NA , End Time: 04/30/2020 13:51:15 , comments: 
transaction_id: 9d5a45ae-7972-49a4-be22-108a5bb1acb4 , transaction_item:System.Data.DataRow , machine_name: Sunny.Shelar , process_name: Sterling_RPA_RE_Framework, start_time: 04/30/2020 13:51:15 , transaction_status: InProgress
transaction_id: 9d5a45ae-7972-49a4-be22-108a5bb1acb4 , transaction status: Successful , ExceptionType: NA , End Time: 04/30/2020 13:58:44 , comments: Success
transaction_id: 9d5a45ae-7972-49a4-be22-108a5bb1acb4 , transaction status: Successful , ExceptionType: NA , End Time: 04/30/2020 13:58:44 , comments: 
transaction_id: 751c518b-eebc-429c-9ac1-a4a45e21e114 , transaction_item:System.Data.DataRow , machine_name: Sunny.Shelar , process_name: Sterling_RPA_RE_Framework, start_time: 04/30/2020 13:58:45 , transaction_status: InProgress
transaction_id: 751c518b-eebc-429c-9ac1-a4a45e21e114 , transaction status: Successful , ExceptionType: NA , End Time: 04/30/2020 14:09:27 , comments: Success
transaction_id: 751c518b-eebc-429c-9ac1-a4a45e21e114 , transaction status: Successful , ExceptionType: NA , End Time: 04/30/2020 14:09:27 , comments: 
transaction_id: e1f8cd8e-a5ca-4fcb-b0fb-2134e331b4e1 , transaction_item:System.Data.DataRow , machine_name: Sunny.Shelar , process_name: Sterling_RPA_RE_Framework, start_time: 04/30/2020 14:09:28 , transaction_status: InProgress
transaction_id: e1f8cd8e-a5ca-4fcb-b0fb-2134e331b4e1 , transaction status: Successful , ExceptionType: NA , End Time: 04/30/2020 16:24:13 , comments: Success
transaction_id: e1f8cd8e-a5ca-4fcb-b0fb-2134e331b4e1 , transaction status: Successful , ExceptionType: NA , End Time: 04/30/2020 16:24:14 , comments: 
transaction_id: a7475c6e-53f1-4950-8b24-cc9d4341a775 , transaction_item:System.Data.DataRow , machine_name: Sunny.Shelar , process_name: Sterling_RPA_RE_Framework, start_time: 04/30/2020 16:24:15 , transaction_status: InProgress
transaction_id: a7475c6e-53f1-4950-8b24-cc9d4341a775 , transaction status: Successful , ExceptionType: NA , End Time: 04/30/2020 16:49:16 , comments: Success
transaction_id: a7475c6e-53f1-4950-8b24-cc9d4341a775 , transaction status: Successful , ExceptionType: NA , End Time: 04/30/2020 16:49:16 , comments: 
transaction_id: fecf890d-c267-428e-a567-45a31cbb0c4a , transaction_item:System.Data.DataRow , machine_name: Sunny.Shelar , process_name: Sterling_RPA_RE_Framework, start_time: 04/30/2020 16:49:16 , transaction_status: InProgress
transaction_id: fecf890d-c267-428e-a567-45a31cbb0c4a , transaction status: Successful , ExceptionType: NA , End Time: 04/30/2020 17:06:18 , comments: Success
transaction_id: fecf890d-c267-428e-a567-45a31cbb0c4a , transaction status: Successful , ExceptionType: NA , End Time: 04/30/2020 17:06:18 , comments: 
transaction_id: 99370dc0-f10c-461c-9a99-e3dc979ec318 , transaction_item:System.Data.DataRow , machine_name: Sunny.Shelar , process_name: Sterling_RPA_RE_Framework, start_time: 04/30/2020 17:06:19 , transaction_status: InProgress
transaction_id: 99370dc0-f10c-461c-9a99-e3dc979ec318 , transaction status: Successful , ExceptionType: NA , End Time: 04/30/2020 17:14:52 , comments: Success
transaction_id: 99370dc0-f10c-461c-9a99-e3dc979ec318 , transaction status: Successful , ExceptionType: NA , End Time: 04/30/2020 17:14:53 , comments: 
transaction_id: 12a086ae-9cc1-4562-824b-49c79c56a41b , transaction_item:System.Data.DataRow , machine_name: Sunny.Shelar , process_name: Sterling_RPA_RE_Framework, start_time: 04/30/2020 17:14:54 , transaction_status: InProgress
transaction_id: 12a086ae-9cc1-4562-824b-49c79c56a41b , transaction status: Successful , ExceptionType: NA , End Time: 04/30/2020 17:23:04 , comments: Success
transaction_id: 12a086ae-9cc1-4562-824b-49c79c56a41b , transaction status: Successful , ExceptionType: NA , End Time: 04/30/2020 17:23:04 , comments: 
transaction_id: 1c168466-16af-4dcd-bd21-10687eb4f9bb , transaction_item:System.Data.DataRow , machine_name: Sunny.Shelar , process_name: Sterling_RPA_RE_Framework, start_time: 04/30/2020 17:23:05 , transaction_status: InProgress
transaction_id: 1c168466-16af-4dcd-bd21-10687eb4f9bb , transaction status: Successful , ExceptionType: NA , End Time: 04/30/2020 17:31:09 , comments: Success
transaction_id: 1c168466-16af-4dcd-bd21-10687eb4f9bb , transaction status: Successful , ExceptionType: NA , End Time: 04/30/2020 17:31:10 , comments: 
transaction_id: dd849c2f-b12d-411d-9bd2-c47be7317758 , transaction_item:System.Data.DataRow , machine_name: Sunny.Shelar , process_name: Sterling_RPA_RE_Framework, start_time: 04/30/2020 17:31:10 , transaction_status: InProgress
transaction_id: dd849c2f-b12d-411d-9bd2-c47be7317758 , transaction status: Successful , ExceptionType: NA , End Time: 04/30/2020 17:39:13 , comments: Success
transaction_id: dd849c2f-b12d-411d-9bd2-c47be7317758 , transaction status: Successful , ExceptionType: NA , End Time: 04/30/2020 17:39:14 , comments: 
transaction_id: 4953f244-7e38-407d-95a3-0fbd900bd73a , transaction_item:System.Data.DataRow , machine_name: Sunny.Shelar , process_name: Sterling_RPA_RE_Framework, start_time: 04/30/2020 17:39:14 , transaction_status: InProgress
transaction_id: 4953f244-7e38-407d-95a3-0fbd900bd73a , transaction status: Successful , ExceptionType: NA , End Time: 04/30/2020 17:48:57 , comments: Success
transaction_id: 4953f244-7e38-407d-95a3-0fbd900bd73a , transaction status: Successful , ExceptionType: NA , End Time: 04/30/2020 17:48:58 , comments: 
transaction_id: 803f3c38-2b23-40fe-b1ce-fc2328c73bf8 , transaction_item:System.Data.DataRow , machine_name: Sunny.Shelar , process_name: Sterling_RPA_RE_Framework, start_time: 04/30/2020 17:48:59 , transaction_status: InProgress
transaction_id: 803f3c38-2b23-40fe-b1ce-fc2328c73bf8 , transaction status: Successful , ExceptionType: NA , End Time: 04/30/2020 17:58:25 , comments: Success
transaction_id: 803f3c38-2b23-40fe-b1ce-fc2328c73bf8 , transaction status: Successful , ExceptionType: NA , End Time: 04/30/2020 17:58:25 , comments: 
